…
> text_df <- data_frame(line = 1, text = text)
> 
> tidy_text <- text_df %>% unnest_tokens(word, text)
> 
> data(stop_words)
> de <- data.frame(word = c("thy", "1", "hath", "mar'd"), lexicon = "OLD_WORDS")
> stop_words <- rbind(stop_words, de)
> 
> tidy_text <- tidy_text %>%
+   anti_join(stop_words)
Joining with `by = join_by(word)`
> 
> tidy_text %>%
+   count(word, sort = TRUE)
# A tibble: 2,152 x 2
   word           n
   <chr>      <int>
 1 learning     257
 2 machine      145
 3 data         120
 4 model         52
 5 algorithms    47
 6 training      47
 7 artificial    40
 8 set           34
 9 models        31
10 ai            29
# i 2,142 more rows
# i Use `print(n = ...)` to see more rows
…
> bigrams_separated <- text_bigrams %>%
+   separate(bigram, c("word1", "word2"), sep = " ")
> 
> bigrams_filtered <- bigrams_separated %>%
+   filter(!word1 %in% stop_words$word) %>%
+   filter(!word2 %in% stop_words$word)
> 
> bigram_counts <- bigrams_filtered %>%
+   count(word1, word2, sort = TRUE)
> 
> bigrams_united <- bigrams_filtered %>%
+   unite(bigram, word1, word2, sep = " ")
> 
> bigrams_united
# A tibble: 2,964 x 2
    line bigram           
   <dbl> <chr>            
 1     1 machine learning 
 2     1 NA NA            
 3     1 NA NA            
 4     1 NA NA            
 5     1 NA NA            
 6     1 NA NA            
 7     1 view history     
 8     1 NA NA            
 9     1 NA NA            
10     1 free encyclopedia
# i 2,954 more rows
# i Use `print(n = ...)` to see more rows
…
